%YAML 1.1
%TAG !u! tag:unity3d.com,2011:
--- !u!1045 &1
EditorBuildSettings:
  m_ObjectHideFlags: 0
  serializedVersion: 2
  m_Scenes:
  - enabled: 1
    path: Assets/Scenes/Mainmenu.unity
    guid: f16c45a36bb01de409f0aadd0dbf7704
  - enabled: 1
    path: Assets/Scenes/easy.unity
    guid: aaa671ee37ab33545a3c555c65bb5a14
  - enabled: 0
    path: Assets/Scenes/medium.unity
    guid: 7e06f9163626ae5428bbb51339825e18
  - enabled: 0
    path: Assets/Scenes/Difficult.unity
    guid: 5bf22eb20b22ac94fbe9705e6eb28c52
  m_configObjects:
    com.unity.xr.management.loader_settings: {fileID: 11400000, guid: 9148fd8f35805744ebb0a46ea3515807,
      type: 2}
